ntl_icecover and ntl_airtemp: Comparing Temperatures and Lake Ice in Madison, WI since the 19th Century (North Temperate Lakes LTER) • lterdatasets
…
Since the box plots and time series plots are similar, we can try averaging the ice duration across all three lakes:

avg_ice <- ntl_icecover %>%
  filter(!is.na(ice_duration)) %>% 
  group_by(year) %>%
  summarise(ice_duration = mean(ice_duration)) %>%
  rename(avg_ice_duration = ice_duration)

avg_ice
#> # A tibble: 166 x 2
#>     year avg_ice_duration
#>    <dbl>            <dbl>
#>  1  1851             103 
#>  2  1855             118 
#>  3  1856             151 
#>  4  1857             120 
#>  5  1858              95 
#>  6  1859             110.
#>  7  1860             123 
#>  8  1861             132.
#>  9  1862             112.
#> 10  1863             128 
#> # … with 156 more rows
…
Compute the mean annual temperature:

ntl_annual_avg <- ntl_airtemp %>% 
  group_by(year) %>% 
  summarise(ave_air_temp_adjusted = mean(ave_air_temp_adjusted))

ntl_annual_avg
#> # A tibble: 151 x 2
#>     year ave_air_temp_adjusted
#>    <dbl>                 <dbl>
#>  1  1869                  6.42
#>  2  1870                  8.83
#>  3  1871                  7.99
#>  4  1872                  6.72
#>  5  1873                  6.83
#>  6  1874                  8.11
#>  7  1875                  5.94
#>  8  1876                  7.53
#>  9  1877                  8.81
#> 10  1878                  9.95
#> # … with 141 more rows
…
There seems to be a general upward trend in the mean annual temperature. As a result, there may be a relationship between temperature and ice duration.

Join and Compare Ice and Temperature Data

To compare the ice cover and temperature data directly, the ntl_airtemp and ntl_icecover datasets can be joined together. A common variable needs to be identified to do this. In this case, the datasets can be joined on the year of observation. Since there is one temperature for each year in ntl_annual_avg, each temperature will be mapped to the corresponding year in the joined table. For example, a ave_air_temp_adjusted value of 6.416 degrees Celsius will be added to each row that has a year value of 1869.

ntl_full_join <- ntl_annual_avg %>% 
  full_join(by = "year", ntl_icecover)

ntl_full_join
#> # A tibble: 431 x 6
#>     year ave_air_temp_adjusted lakeid       ice_on     ice_off    ice_duration
#>    <dbl>                 <dbl> <fct>        <date>     <date>            <dbl>
#>  1  1869                  6.42 Lake Mendota 1869-12-02 1870-04-12          131
#>  2  1869                  6.42 Lake Monona  1869-11-24 1870-04-11          138
#>  3  1870                  8.83 Lake Mendota 1870-12-24 1871-04-02           99
#>  4  1870                  8.83 Lake Monona  1870-12-22 1871-04-01          100
#>  5  1871                  7.99 Lake Mendota 1871-12-19 1872-04-23          126
#>  6  1871                  7.99 Lake Monona  1871-11-30 1872-04-20          142
#>  7  1872                  6.72 Lake Mendota 1872-11-30 1873-04-23          144
#>  8  1872                  6.72 Lake Monona  1872-11-28 1873-04-18          141
#>  9  1873                  6.83 Lake Mendota 1873-11-29 1874-04-14          136
#> 10  1873                  6.83 Lake Monona  1873-11-29 1874-04-14          136
#> # … with 421 more rows
…
