Konza Prairie Bison Weights (KNZ) • lterdatasampler
…
Konza Prairie LTER bison herd, LTER CC BY-SA 4.0

Packages

library(lterdatasampler)
library(tidyverse)
library(broom)

Data exploration

Let’s take a look at the existing knz_bison data:

knz_bison
#> # A tibble: 8,325 × 8
#>    data_code rec_year rec_month rec_day animal_code animal_sex animal_weight
#>    <chr>        <dbl>     <dbl>   <dbl> <chr>       <chr>              <dbl>
#>  1 CBH01         1994        11       8 813         F                    890
#>  2 CBH01         1994        11       8 834         F                   1074
#>  3 CBH01         1994        11       8 B-301       F                   1060
#>  4 CBH01         1994        11       8 B-402       F                    989
#>  5 CBH01         1994        11       8 B-403       F                   1062
#>  6 CBH01         1994        11       8 B-502       F                    978
#>  7 CBH01         1994        11       8 B-503       F                   1068
#>  8 CBH01         1994        11       8 B-504       F                   1024
#>  9 CBH01         1994        11       8 B-601       F                    978
#> 10 CBH01         1994        11       8 B-602       F                   1188
#> # … with 8,315 more rows, and 1 more variable: animal_yob <dbl>
…
We can also use the broom::glance() function to return important information about the model overall:

bison_f_gompertz %>% broom::glance()
#> # A tibble: 1 × 9
#>   sigma isConv     finTol  logLik    AIC    BIC  deviance df.residual  nobs
#>   <dbl> <lgl>       <dbl>   <dbl>  <dbl>  <dbl>     <dbl>       <int> <int>
#> 1  81.1 TRUE   0.00000311 -29358. 58724. 58750. 33206307.        5046  5049

We can use broom::augment() to added fitted values and residuals to our bison_f data frame:

augment(bison_f_gompertz, bison_f)
#> # A tibble: 5,049 × 11
#>    data_code rec_year rec_month rec_day animal_code animal_sex animal_weight
#>    <chr>        <dbl>     <dbl>   <dbl> <chr>       <chr>              <dbl>
#>  1 CBH01         1994        11       8 813         F                    890
#>  2 CBH01         1994        11       8 834         F                   1074
#>  3 CBH01         1994        11       8 B-301       F                   1060
#>  4 CBH01         1994        11       8 B-402       F                    989
#>  5 CBH01         1994        11       8 B-403       F                   1062
#>  6 CBH01         1994        11       8 B-502       F                    978
#>  7 CBH01         1994        11       8 B-503       F                   1068
#>  8 CBH01         1994        11       8 B-504       F                   1024
#>  9 CBH01         1994        11       8 B-601       F                    978
#> 10 CBH01         1994        11       8 B-602       F                   1188
#> # … with 5,039 more rows, and 4 more variables: animal_yob <dbl>,
#> #   animal_age <dbl>, .fitted <dbl>, .resid <dbl>
…
