North Temperate Lakes Ice Cover (NTL) • lterdatasampler
…
Box plots and time series plots reveal similarities across the 2 lakes. What does the trend look like for average ice cover duration in the region, based on data for the 2 lakes here?

ntl_icecover_avg <- ntl_icecover %>%
  drop_na(ice_duration) %>% 
  group_by(year) %>%
  summarise(ice_duration = mean(ice_duration)) %>%
  rename(avg_ice_duration = ice_duration)

ntl_icecover_avg
#> # A tibble: 166 × 2
#>     year avg_ice_duration
#>    <dbl>            <dbl>
#>  1  1851             103 
#>  2  1855             118 
#>  3  1856             151 
#>  4  1857             120 
#>  5  1858              95 
#>  6  1859             110.
#>  7  1860             123 
#>  8  1861             132.
#>  9  1862             112.
#> 10  1863             128 
#> # … with 156 more rows
…
We can compute the mean annual air temperature using group_by and summarise:

ntl_airtemp_avg <- ntl_airtemp %>% 
  filter(year > 1884) %>%   # filter out the known biased data
  group_by(year) %>% 
  summarise(avg_air_temp_adjusted = mean(ave_air_temp_adjusted, na.rm=TRUE))

ntl_airtemp_avg
#> # A tibble: 135 × 2
#>     year avg_air_temp_adjusted
#>    <dbl>                 <dbl>
#>  1  1885                  5.04
#>  2  1886                  6.65
#>  3  1887                  6.64
#>  4  1888                  5.59
#>  5  1889                  7.44
#>  6  1890                  7.25
#>  7  1891                  7.18
#>  8  1892                  6.02
#>  9  1893                  5.87
#> 10  1894                  8.21
#> # … with 125 more rows
…
To further investigate the relationship between the air temperature during the cold season and the ice cover duration, we can join the two datasets together using left_join:

ntl_joined_avg <- ntl_icecover_avg  %>%
  left_join(by = c("year" = "hydroyear"), ntl_airtemp_avg_winter)

ntl_joined_avg
#> # A tibble: 166 × 3
#>     year avg_ice_duration avg_air_temp_adjusted
#>    <dbl>            <dbl>                 <dbl>
#>  1  1851             103                     NA
#>  2  1855             118                     NA
#>  3  1856             151                     NA
#>  4  1857             120                     NA
#>  5  1858              95                     NA
#>  6  1859             110.                    NA
#>  7  1860             123                     NA
#>  8  1861             132.                    NA
#>  9  1862             112.                    NA
#> 10  1863             128                     NA
#> # … with 156 more rows
…
